{
  "dependencies": {
    "es6-promise": "github:typings/typed-es6-promise#9243c53f70fb4909ed7cce3094bec221b9fb6d5f"
  },
  "ambientDependencies": {
    "node": "github:DefinitelyTyped/DefinitelyTyped/node/node.d.ts#1c56e368e17bb28ca57577250624ca5bd561aa81",
    "source-map": "github:DefinitelyTyped/DefinitelyTyped/source-map/source-map.d.ts#1c572762b93d4b059d89339867edf54946176361",
    "uglify-js": "github:DefinitelyTyped/DefinitelyTyped/uglify-js/uglify-js.d.ts#51b587292f2ba85d68939d9c59cf7fa745a6173e",
    "webpack": "github:DefinitelyTyped/DefinitelyTyped/webpack/webpack.d.ts#51868917c7480cc6b1187a59bbd0120effa29841",
    "es6-shim": "github:DefinitelyTyped/DefinitelyTyped/es6-shim/es6-shim.d.ts#6697d6f7dadbf5773cb40ecda35a76027e0783b2",
    "zone": "github:DefinitelyTyped/DefinitelyTyped/zone/zone.d.ts#31e7317c9a0793857109236ef7c7f223305a8aa9",
    "ng2": "github:gdi2290/typings-ng2/ng2.d.ts#32998ff5584c0eab0cd9dc7704abb1c5c450701c"
  }
}
